745572 559432 509
581624 211449 470
786715 432043 509
952325 222923 525
427902 71064 449
617851 407124 470
35187 168949 383
338967 850684 525
47088 560400 470
185021 461439 449
474026 241534 449
653620 605785 509
670587 970436 525
985372 164377 525
552294 14945 470
951117 478630 525
278671 108467 443
585441 557084 434
541048 368094 470
799163 180712 509
861321 930711 476
895138 658626 525
483961 375232 449
612407 189741 470
288723 427357 449
935601 719780 525
165787 748029 509
169242 333561 443
151995 513576 470
979503 427186 525
63204 649977 509
512260 81343 470
323770 991155 525
861848 586046 525
589953 567365 434
121482 791610 509
887759 869963 445
636805 281242 509
985702 160579 525
661346 919334 525
33669 340002 443
592096 387796 470
333874 526121 470
258099 727782 509
860140 964846 507
83215 243365 443
260786 768712 509
869869 353140 525
173708 846177 525
634311 418332 509
314923 546827 470
764412 733633 424
338462 404448 441
927444 554393 525
568759 235545 470
909475 674003 525
222404 215099 386
6345 390223 443
636494 77858 509
712658 131974 509
935143 186216 525
885006 453613 525
162515 856264 525
267811 817491 509
636224 252488 509
451518 533898 470
388983 225188 443
363559 113321 443
650129 39145 509
146398 924749 525
826491 211222 509
971691 816909 525
830339 935951 525
278031 470421 449
793333 771230 437
813212 395351 509
503733 946506 525
770572 735431 468
940017 685493 525
536929 901758 525
999881 614465 525
116118 656875 509
286967 867129 525
467405 587870 470
828108 553019 509
860673 697876 525
30685 972976 525
94774 415163 449
326262 522607 470
431747 80520 449
978042 50058 525
890108 120637 525
698122 93164 509
536980 800201 509
573294 59310 470
540880 838680 525
739667 842506 525
123893 194428 383
81964 963126 525
489670 283526 449
27797 294155 443
59146 132376 354
266632 893556 525
947730 330012 525
167164 426356 449
256272 499489 449
557197 293090 470
386077 64194 443
393411 946256 525
325936 873121 525
142348 278087 443
598277 618925 447
55260 723974 509
625905 453529 470
217067 184036 386
681642 674110 385
664446 898220 525
224761 64727 386
190875 935670 525
237893 962512 525
346939 612645 470
724663 512370 509
799844 713162 468
69858 260275 443
214706 482143 449
247514 31990 443
347928 459589 449
785733 502892 509
910397 232526 525
864375 833211 525
409450 354758 436
102886 330286 443
101994 742888 509
178277 841269 525
345781 324054 384
850065 229531 525
889309 657809 525
203031 798741 509
391597 21911 443
970108 541816 525
417951 371062 449
907619 726662 525
646634 36673 509
530943 16670 470
71372 312807 443
328948 972322 525
853151 355676 525
152337 475096 449
22216 124150 354
298564 67138 443
269186 790528 509
109136 584023 470
618087 407515 470
152534 954221 525
241812 117148 443
409445 865427 525
963366 378535 525
962276 948365 414
297034 933200 525
815858 170030 509
967108 449106 525
825617 272707 509
859091 884925 432
265948 469250 449
105101 960924 525
421629 275870 449
339861 972936 525
141017 475950 449
425102 742054 509
85203 926288 525
659469 332373 509
840366 880698 432
117643 274998 443
8294 656589 509
431699 988327 525
449808 893075 525
492898 2269 449
324713 25870 443
757543 14111 509
466430 157763 449
856255 423445 525
329744 433253 449
944597 961010 414
169086 530192 470
629464 878440 525
847966 750727 525
243316 973871 525
500693 992695 525
130891 943432 525
388820 138615 443
792668 158264 509
878488 258657 525
387436 237841 441
410668 718976 509
182563 444184 449
336826 393584 441
211817 705990 509
146116 74282 375
237554 922785 525
948259 775278 525
120409 851414 525
670635 819440 504
151506 313689 443
655748 333624 509
2882 446967 449
754142 392738 509
866410 216772 525
21750 688213 509
116422 737359 509
991134 858611 507
427583 982470 525
716841 194483 509
171119 237742 443
28838 619863 470
78486 625271 470
979167 984952 427
530823 808978 509
988369 600491 525
307790 381874 441
848924 817107 525
488247 186123 449
638135 508621 509
102439 768224 509
359544 515904 470
549686 879677 525
125397 291710 443
710899 310472 509
233606 120093 443
544884 628752 509
841099 156282 525
299491 254353 407
850050 269647 525
579534 893823 525
805912 581193 509
446382 517306 470
183286 267319 443
630578 838409 525
499073 919204 525
927135 600976 525
872619 879329 432
163244 946806 525
630265 618790 509
128978 129159 194
600819 518604 452
943118 705026 525
74120 606201 470
655589 365649 509
933219 236805 525
375307 720880 509
483435 385933 449
553954 141739 470
289157 99722 443
