511980 58820
441745 359537
801429 239706
197377 362623
979824 915218
96139 233056
281579 430189
804898 133858
790567 398857
657916 341122
118635 649805
573626 957789
323596 842739
727844 189070
820313 70375
675333 891092
688124 741338
740953 638532
794589 364586
18922 54703
843460 782262
310509 730121
152799 658830
787512 921644
19772 139343
530903 362330
981049 56294
59361 48554
332851 692517
805428 60516
462997 440724
359019 176931
684283 419625
152328 491918
288267 90609
794551 827482
837741 356898
479367 830845
943122 851603
542135 911487
982695 492507
768918 749077
277946 882993
966620 981017
495635 103019
898009 165643
175925 94429
494888 4847
920511 650868
121240 612017
274900 902485
491546 276029
977799 783827
528799 436213
605957 103148
840199 449404
833417 536899
237402 98528
549564 921941
204784 200856
982651 679484
902536 694939
322892 855517
481167 230424
95973 655943
556796 481067
869736 588288
45993 128482
981711 409252
464510 859397
886474 901697
766689 516804
53099 599605
524729 155887
843874 638461
46100 687472
998859 776080
893991 435529
309326 860091
663668 902041
970017 301585
228370 456430
465803 28987
290966 766522
98180 576944
324658 809631
790063 44532
26589 82057
727382 832892
876904 72160
430281 535764
544647 310755
853568 39641
251638 833364
233878 856620
226712 869533
369332 934824
861466 131552
87763 310183
880745 632834
578659 131247
853099 859557
345450 205931
982777 408922
374200 323252
943275 512099
603918 807836
938523 958342
46006 307827
454720 461308
785835 206763
621698 671926
927831 162810
996607 221879
160594 440380
709711 22670
454530 493207
498526 574483
28464 508342
265310 956461
715734 13493
845281 574132
966368 847696
932786 354023
834517 855077
55942 171194
881315 973612
390730 852134
597823 522013
860705 244321
609651 159074
646396 840280
122928 944222
874014 406619
508040 511792
373118 678791
642108 34273
473303 109602
502419 518264
211686 584110
899605 761880
736020 78635
258104 803806
832810 259551
685146 111284
436568 935014
339320 359545
53506 485530
211056 250670
528180 310148
92427 292911
91057 269468
587657 150411
118053 87925
324629 640714
423293 359627
262300 71684
779763 971719
122812 177193
949884 406572
828922 401668
841066 966277
790325 473586
689228 775783
13910 863734
24076 456535
337203 277065
806090 873725
902912 988732
178039 897534
59153 849617
31803 709437
447124 938334
201913 235353
440129 361789
689878 997919
872689 930737
399058 402857
625135 828635
873603 343622
144557 146303
981857 363319
35949 188804
545747 258415
620236 558405
72988 189787
495922 189739
907919 161942
495938 88070
953973 759885
5942 649617
129408 852618
154945 348507
519717 341941
135705 94225
161645 499051
87100 907620
914815 651083
952268 609542
677479 868762
506612 642060
885606 371912
58182 749669
299 780308
112334 807856
164499 519798
495890 830758
309938 173261
825441 489138
176758 668235
62775 538894
542733 508139
967325 789008
420912 358914
279500 907512
602280 948694
108434 546310
581163 169669
783877 98004
476057 865003
672897 808183
731813 283889
133150 219622
731482 112391
948902 845197
258706 641800
558544 486225
460383 711682
180728 981156
963755 854899
145884 376981
290895 522123
910677 346623
581193 703516
773227 40757
481101 872377
946850 695057
29361 416709
958937 342148
434601 188804
480019 907657
225630 270449
741036 719095
86749 299920
427963 103235
