460781 463388 444
101325 519255 470
515021 700337 509
179925 188504 365
395190 890043 525
622886 69521 470
360149 780692 509
77730 554546 470
918800 768682 525
9692 110339 354
168801 769161 509
84423 318000 443
45665 850377 525
161527 910523 525
802222 316009 509
906986 385685 525
59652 394468 443
925615 767597 525
4057 902503 525
197193 755718 509
655761 448821 509
865464 939188 476
244758 948292 525
948911 198353 525
699435 594356 509
211309 123099 383
208186 34766 383
486082 85242 449
648855 10132 509
225548 339902 443
513996 328353 470
297846 138679 443
139084 871457 525
244141 89597 443
577425 580208 359
919966 214625 525
176185 259270 443
721592 312691 509
897862 681306 525
434919 379398 449
435852 282484 449
747 207068 383
63923 661165 509
917093 376028 525
113943 90894 354
771496 455550 509
188562 99235 383
885208 138476 525
193358 961964 525
978628 360891 525
305011 343147 384
352827 583873 470
130364 343125 443
535817 524967 408
591860 385388 470
196985 418429 449
706628 42951 509
593632 995293 525
666506 109586 509
665111 557786 509
542991 588913 452
509139 901777 525
757848 622191 509
71267 395427 443
266654 285970 407
201187 493499 449
539468 126307 470
750632 794198 468
329553 444526 449
876776 91952 525
152951 422092 449
271452 446860 449
319233 900927 525
112658 23579 354
215930 259236 443
73515 383240 443
562440 37549 470
517728 744302 509
629270 532994 509
916495 294804 525
166864 200921 365
543942 702762 509
206050 860918 525
468843 432192 444
191727 681972 509
426076 316039 449
548203 270694 470
41559 725088 509
493660 446724 444
863178 531363 525
415578 377117 449
802236 198961 509
816702 592049 509
541406 742802 509
693795 905856 525
150078 322660 443
990305 12897 525
159481 728193 509
733566 972254 525
824736 471117 509
666789 741749 504
672090 386697 509
359609 940992 525
745716 547109 509
903054 685456 525
67182 770945 509
257427 590298 470
21241 91609 351
351336 342559 441
570889 938425 525
327213 587728 470
333662 879620 525
215503 920890 525
556683 77195 470
955826 927353 507
264789 376442 441
592677 414936 470
628487 5769 509
406956 391765 405
487334 719510 509
471385 206922 449
93308 268092 443
273103 55288 443
84212 801882 509
937434 829432 525
613274 357241 470
840477 255976 525
93579 787310 509
519030 347084 470
705948 966392 525
32903 563043 470
874204 469900 525
338216 108089 443
89971 637137 509
474836 218352 449
309658 63444 443
106082 327810 443
495696 82680 449
957689 883898 507
236825 596150 470
512291 293003 470
7758 220972 386
384259 619861 470
497268 869282 525
26918 195756 383
704470 311093 509
36778 99152 351
929103 66844 525
458312 987272 525
903831 388776 525
595237 72653 470
612141 581732 434
479568 811187 509
583518 457752 470
213223 737173 509
994694 554013 525
611501 156587 470
613734 860289 525
516340 161399 470
603594 678798 509
167176 134770 383
341510 574611 470
399694 655512 509
6352 395166 443
520903 816298 509
159821 40372 383
606330 97745 470
334657 338398 366
463130 556311 470
673121 115613 509
129868 218915 386
376421 361676 392
135725 744719 509
653879 375261 509
282281 18411 443
336132 21147 443
700000 797668 504
895254 545304 525
821290 803504 450
974284 944931 458
763975 212598 509
349838 492945 449
408085 131027 443
871427 422700 525
280998 944024 525
436740 532123 470
49478 540558 470
775895 180832 509
454043 160817 449
440863 455354 387
955500 627006 525
49702 21812 324
968524 744133 525
391114 886348 525
558200 598101 434
370196 774392 509
910716 76290 525
233726 742839 509
923612 650837 525
383309 230832 441
283132 937837 525
99733 43803 351
948938 676386 525
762788 232695 509
910347 679145 525
333812 636644 509
918953 894981 476
75432 343492 443
78634 197696 383
728518 748152 424
950853 204065 525
964425 530907 525
92082 790972 509
673289 768860 504
10211 489901 449
682765 406074 509
68452 514168 470
700792 808593 504
194931 663263 509
878431 146994 525
675843 253624 509
178837 497445 449
440911 478266 444
10504 141922 354
49283 164041 383
116015 904145 525
245670 834172 509
876132 576883 525
802753 857281 525
336959 718443 509
228742 142705 386
581195 66495 470
980900 773263 525
972304 39932 525
613184 823733 509
283486 909357 525
42887 857252 525
203549 643758 509
67255 866707 525
555505 24488 470
417781 247584 449
235967 70750 443
757229 801043 468
389317 450838 449
640441 511528 509
5278 254219 443
619522 625268 385
173314 453237 449
452955 989252 525
397106 361525 436
23872 797786 509
897571 646025 525
249816 993999 525
