142578 145388
110680 110901
13783 14491
127857 129019
42650 44516
6925 7464
16425 17204
28366 28778
127404 128975
58027 58797
39194 41613
74697 76674
114687 117325
114526 116299
32875 36250
49760 50809
46757 47372
83815 86971
68620 69040
106297 108633
117015 118100
37193 39485
70616 73652
16215 16438
140920 141535
96357 99180
57655 60001
7077 9176
61477 63609
14293 16879
81812 84944
109870 111447
144268 147105
131777 132590
28970 30404
29280 30430
68053 68539
124594 127149
42896 45349
96545 98985
45969 48252
17733 19024
25391 27797
25667 26166
68459 70857
54319 57712
46842 49121
129886 130183
96532 97839
53415 55293
101256 101422
27729 29232
93103 96577
51345 51491
144245 145689
94537 95237
100068 102839
11047 12593
71144 73249
51620 55091
106065 107910
76152 78794
10075 11791
61562 62022
140419 141578
4649 7405
132219 135288
65307 66284
132358 134672
138118 141015
30507 32821
107731 108727
140288 142296
105836 108650
142600 144125
144097 147185
126113 126991
23964 25870
63821 67274
2171 5274
107804 108812
65659 66338
51397 51762
136842 137306
28901 31926
144008 145208
127797 129241
28726 30183
107865 109994
20883 23080
112146 112839
28325 29150
105591 105875
35797 38754
59378 62683
87858 88704
26382 27948
133013 134388
86667 87254
120669 123067
142813 144524
139008 142409
88892 89166
68450 68780
41458 43346
3606 5427
127698 130321
111132 113153
48683 52077
34643 37229
128010 129888
45394 47372
142951 145868
123606 125576
17348 18136
3845 5886
44513 44631
77424 79737
39182 41104
31874 34528
4569 7575
89555 90617
135790 138143
14863 17308
99626 102931
132396 133425
130798 133329
24825 26208
9849 10278
112923 114852
13885 14135
86505 89382
2993 5719
138101 140424
1048 2518
105864 107138
57519 59565
132916 136385
34627 35655
99108 102154
90988 91305
132817 135005
121509 124817
86363 88585
13090 15376
117266 118552
67197 69503
79727 80947
95261 96399
142539 145668
47242 47918
142684 146007
130596 133067
18875 19260
122401 125079
42731 45695
143224 145134
36446 39422
83874 85765
12701 15483
82921 85062
149680 150152
103590 106890
65440 67027
30860 32598
22032 22428
107430 108810
86924 90136
46897 49330
40827 42105
7898 10886
99033 100189
14610 16040
116552 118260
80548 83508
9092 10204
31216 32925
98761 100751
5974 6240
110615 112328
15946 17278
123917 127340
77296 80052
116240 119063
101632 105107
145272 148392
16657 18053
97950 99239
121621 124197
8032 9703
58288 59956
41711 43807
82611 84729
38447 39872
84749 85750
21586 24867
88381 91607
134179 135326
112517 114087
67741 70820
65372 66713
121522 123118
50696 51166
47736 50750
23412 25270
8983 11276
123496 125035
55070 56810
129111 130969
120913 122527
136199 137396
36472 38919
44025 46505
123364 125388
111266 112972
82065 82319
107298 110377
89858 92100
95882 96769
59327 62654
26657 28971
73 1766
22059 25466
65757 68384
136225 139430
80885 83126
147414 148053
61345 62053
110521 113263
90670 92216
60424 63248
148762 151394
72071 74363
101146 102281
139775 140358
120741 122100
33943 34593
97972 99581
124766 124909
117336 118063
46430 47060
61594 63273
32684 35582
54793 57743
99152 101650
137306 140391
16664 17811
72750 75802
39889 43168
88466 89340
