1 10
100 200
201 210
900 1000
1 1
1 2
1 3
3 4
1 999999
2 1
1 100
1000 1
999999 999999
300000 500000
400 10
15298 219213
128437 31468
14124 124345
524288 524288
999999 999999
888888 888888
800000 200000
545454 787878
1 456789
837799 837799
783365 482378
232635 26372
844783 61348
945071 270789
174253 584783
963258 82777
275873 998490
775569 932556
607070 697547
101093 879514
885421 29623
39248 457646
251469 626667
2156 251314
9935 263276
686167 609844
800518 305019
900756 917855
987387 101324
609738 470883
206843 3115
790344 150426
846747 459195
412198 446935
597129 32239
390533 10618
75897 483775
817754 271831
721087 719548
988314 470998
940680 833068
75943 300383
82058 450288
292096 723865
714106 183346
731882 911964
381459 548917
582354 102241
481278 945806
337670 81948
580211 620418
785038 262954
20670 458611
429453 995093
580114 999341
53981 875355
321279 834774
954925 176466
847888 746076
985499 252942
121084 750683
218373 460386
304552 336001
63252 720202
439303 990835
22205 764452
57578 327020
948693 177180
959994 417621
183909 820117
638486 432707
736426 72703
775970 56729
25803 58562
658721 88835
158139 549792
956421 29902
255478 331913
656803 651929
852034 732104
733864 170904
766407 359008
105057 462516
946248 605684
629937 487476
488302 386452
555162 61595
936888 882209
107476 501016
569181 79469
836735 28269
215227 545854
5470 265656
166952 501826
245222 509036
873302 766002
209480 391452
459596 972856
109797 269626
660576 846232
59913 912125
212464 241702
196933 970928
43371 650986
337935 251843
390843 738477
647144 131224
597022 283698
597381 382934
403651 859383
673693 253579
413651 740646
892883 840796
584028 263864
187486 779389
854455 635259
691783 485957
89891 229491
609305 778315
371721 554225
416432 341942
346350 265844
987370 174909
808167 399097
600543 551340
569510 12639
964970 847051
178404 96616
868401 344033
31581 487617
451046 470743
245650 415514
605658 454562
190919 193285
395083 985038
457248 710690
230885 673236
282908 556570
654904 778977
958583 755151
696138 372678
582991 649815
773925 999428
324453 477312
747936 471201
987507 264914
468212 862339
771170 407727
748048 807821
474819 327332
165736 591450
486178 989955
556175 691293
963517 265815
376678 472115
608927 308087
722677 540412
726507 414146
96952 495104
819695 10353
240031 741145
395106 411300
231795 715713
709017 408766
70512 209979
156305 276873
392938 18999
121722 524412
605551 820066
431727 761350
286278 368676
477833 681099
663290 544247
413633 187021
836985 238896
867211 356104
975434 999857
685070 819013
82293 349656
490963 123509
457612 43770
542932 467253
788652 788403
996075 509069
761400 846582
653468 615662
103959 751830
721138 54114
132411 839236
311494 216730
904223 740540
227686 440048
743023 724111
369666 6232
299069 374227
44096 362306
690317 925891
514152 905042
843179 599321
892077 380909
172471 131540
433809 965040
134682 686748
788059 527615
65331 640981
240113 819244
527765 453117
310427 906846
93510 303316
404375 780906
412717 33920
320443 392513
589622 772905
849009 459208
562610 536581
707940 828667
369821 139667
426151 493547
614354 654042
543542 176119
626585 634668
271796 302411
563751 110624
703485 950292
262772 76629
9434 884432
58893 427389
355027 718319
354874 751078
955183 242608
840425 602465
23910 817780
858900 500049
999123 997538
159128 938358
738953 213241
525437 986291
324377 147187
675872 856205
539334 80398
574757 824786
365557 818196
899993 456758
959752 582468
759866 776105
2947 38020
380197 895038
626625 807157
897036 483684
845627 718473
780789 335183
106356 403128
435621 237069
59596 148490
277545 806164
950943 776492
163020 436948
407842 524828
5281 544378
854036 724460
33648 829487
591567 924945
258256 977072
510196 841806
583844 222242
254262 48280
668114 645175
765450 455224
702949 31936
565292 897093
34311 151780
964684 303994
900826 337707
570494 605005
227694 171172
984984 344654
643482 952066
214151 898092
280596 769178
419753 10748
898373 847871
988024 146155
430145 319464
972314 660185
