970560 613465 525
807843 471088 509
676135 392158 509
655265 744112 504
828700 220063 509
557996 871912 525
753328 524712 509
133538 456916 449
476686 485443 413
426765 494647 444
71757 37892 340
538075 665170 509
311260 464220 449
537594 105091 470
315436 99875 443
792558 503991 509
869788 476867 525
696372 274202 509
959864 467493 525
38451 497334 449
204418 401031 443
423364 268429 449
796401 803723 406
538807 734396 509
2813 474223 449
543542 605579 452
230349 385259 443
701628 526803 509
375023 920100 525
393329 889624 525
576346 551849 421
989809 260119 525
165255 705937 509
6594 917416 525
672518 399464 509
652336 688183 442
718293 703194 504
984803 203900 525
357910 126473 443
893438 938843 476
925719 674210 525
235440 204867 443
529038 715843 509
455663 830206 509
438283 861827 525
799829 462186 509
527826 571889 452
962325 283484 525
543746 263283 470
287535 795672 509
689430 670757 398
28118 678977 509
153276 409748 443
710751 900069 525
771365 423206 509
211175 76165 383
607083 408832 470
48521 954464 525
325696 697188 509
390534 678569 509
444396 725225 509
636878 92222 509
374427 367490 392
860335 131746 525
995050 586311 525
65081 725882 509
900859 257524 525
426466 369282 449
296217 468394 449
504491 461137 444
767255 486262 509
937294 362613 525
4257 979029 525
475343 147575 449
241722 830925 509
298958 5836 443
5751 151117 375
831386 886518 525
813180 576776 509
466264 169275 449
608782 793176 509
340419 340592 304
760483 170627 509
306543 663713 509
391098 228118 443
582109 592597 434
112766 27457 354
996195 333877 525
174474 704052 509
417314 762770 509
121863 734658 509
451935 263501 449
484302 675939 509
969721 279360 525
384486 246182 441
802378 27548 509
206342 949719 525
871559 347109 525
822818 560090 509
885007 377484 525
187073 571460 470
518088 489560 470
557074 70748 470
330558 475302 449
621380 483508 470
540050 637651 509
29562 850777 525
30273 298791 443
403270 685393 509
933029 987807 507
440256 991402 525
226087 211456 386
654214 803292 504
367900 443002 449
618470 715114 509
99211 440006 449
471248 687465 509
39304 388478 443
904015 325713 525
29287 488554 449
574205 322249 470
947843 378826 525
453124 379692 449
575452 303984 470
479956 729829 509
290334 754218 509
172305 973891 525
456861 709437 509
513730 970064 525
82544 480053 449
828949 617832 509
969493 9470 525
11709 937950 525
67887 953636 525
971224 518256 525
931556 366528 525
704209 916209 525
49406 586376 470
347648 599546 470
562501 752620 509
130865 784188 509
805870 38995 509
930803 968297 507
695140 367449 509
787017 79137 509
854743 259888 525
459205 924577 525
821734 295787 509
878332 624628 525
193106 831281 509
158796 885234 525
71959 281875 443
761595 59652 509
608222 112789 470
837461 117956 509
894273 385754 525
576197 14217 470
678495 207903 509
192216 405007 443
643502 445075 509
92894 106685 354
516244 618501 452
782567 250093 509
276883 189042 443
997547 927693 507
335242 118788 443
855974 692527 525
456243 99386 449
536733 666916 509
289294 250478 407
97786 664724 509
742897 862741 525
581497 15031 470
896213 867674 445
62274 227642 386
457168 546565 470
23670 330816 443
426842 213429 449
956464 10696 525
263427 238131 407
855761 248443 525
152326 95624 375
352349 732236 509
743460 817900 468
572722 470393 470
60472 979380 525
367472 528219 470
545730 474503 470
824081 341979 509
349528 584541 470
438040 82302 449
748643 322541 509
140916 47056 354
123309 134153 344
638832 741104 504
342016 642319 509
441366 172657 449
667957 367429 509
321130 513624 470
35906 848893 525
776719 842178 525
169193 111540 383
864239 851717 419
203069 458645 449
441678 581387 470
397068 926176 525
482357 17886 449
494273 533827 470
637997 784816 504
44386 551029 470
289236 529504 470
653880 823801 504
303173 782624 509
420675 927249 525
505896 588110 470
205002 28689 383
601804 770591 509
354414 96005 443
36237 916265 525
965987 514712 525
932010 405989 525
659484 340709 509
844964 356886 525
250635 664664 509
203558 481289 449
792378 338615 509
454933 901643 525
911019 36111 525
821324 750628 468
961116 805720 525
807594 869726 525
243993 75091 443
422493 998604 525
19075 432348 449
496408 821654 509
