978364 35666
351167 254477
817268 567900
50328 901865
635854 11657
877474 890131
519986 160654
275477 83787
728722 723397
136016 862733
104166 579885
821840 163068
461854 704962
835033 456140
716815 224282
538910 802804
108235 827960
275444 951095
485602 20315
69814 26994
494939 303558
507365 794663
993794 766597
635331 2323
668059 197125
71755 663477
756038 39008
279859 815918
24994 436050
393656 663443
408604 886155
492772 828416
1021 552134
853657 267118
251396 251475
810831 720740
550709 561021
840848 25542
194597 119277
65910 797026
902766 661468
990204 593063
875230 989291
809159 278680
681887 347714
74209 683427
602586 171669
499401 588113
409091 806102
475890 761806
643689 665469
111052 743255
661661 313792
137645 501954
774552 137523
471476 639358
51769 22149
201708 881339
673225 290868
771899 5169
535948 383238
24917 542108
294122 324430
778116 538499
149610 696332
317281 881510
59800 905082
907056 592890
558866 125077
521515 279740
485331 946024
338832 740323
549939 45092
627103 472353
262895 336231
965970 316101
120724 369311
908622 407867
150902 226151
475408 633342
327153 345304
999827 971080
983748 46047
446964 862734
486780 627778
444709 77400
765494 249110
483114 947867
264066 613164
77407 955111
119897 89481
694097 807128
434564 397470
941637 719390
620640 692406
410098 291597
862611 290582
782436 94711
528444 106845
670240 821789
143028 320887
371257 628220
527078 708345
124814 476643
726230 433700
137963 491824
707750 4351
590222 64996
320526 152250
480224 728139
606310 148342
421711 352379
173287 143246
608144 237314
672679 336464
294731 752134
824177 890332
411818 457610
704525 262649
918155 159387
711771 612054
676574 610641
987506 358179
916347 625374
495360 814673
213464 932900
597005 706800
300180 908080
238928 783823
951358 647038
728655 511520
612328 413867
540114 827905
82265 967069
234888 549443
909210 503523
620779 612110
236986 216347
157345 592273
165797 537559
736275 916445
586013 105598
803174 513393
909051 971963
822204 951441
492153 744144
313583 320197
218174 161818
34948 157883
322021 960907
506502 637458
982225 579260
835792 974723
159102 525426
925852 554066
286633 911020
681063 122465
854948 319229
907810 814080
508446 201124
903409 906746
368864 272690
233671 864796
735721 857135
468304 375928
453422 590078
332927 56445
980506 118936
935187 458737
817552 331877
711834 445398
543074 258520
190199 961249
665138 606603
575632 697293
429949 620892
705494 339981
560503 704404
93285 615736
329919 77889
385654 461724
568728 160275
850097 756831
475747 759816
845476 831882
427655 292026
157898 849042
60709 954925
599898 82748
645656 135902
643204 661928
756876 136130
697632 869958
284574 685239
446213 764176
827501 503572
887287 749338
782743 191965
609353 777288
566768 453052
994730 743807
875635 449339
819004 392754
297039 739568
276777 653768
95116 848363
930237 673965
321195 80493
44868 391881
617614 290403
454806 554556
795570 213940
692456 825934
87948 811589
769666 175102
939664 883077
132141 222898
163526 329724
405297 274223
355624 110272
715666 176846
442370 599457
650191 98955
561286 637172
117127 138107
745523 530124
929943 530002
459757 513961
491823 413997
161901 310428
883299 156095
577386 395081
252174 832300
438118 423252
