388465 881872 525
71932 89627 351
597887 545557 452
636060 617310 509
428868 838051 525
766407 941158 525
182653 249038 443
103372 320311 443
612942 953031 525
714549 925496 525
695924 546282 509
602062 105274 470
148500 649180 509
658302 535977 509
23951 261740 443
979648 516721 525
877693 395843 525
438066 735680 509
953198 490894 525
132580 805642 509
4889 877890 525
34797 884226 525
190017 414310 449
465265 426514 444
906380 270491 525
810948 984258 525
14540 914153 525
74311 210864 383
273211 762620 509
200200 373725 443
402074 75881 443
253011 133581 443
869158 604247 525
290652 957362 525
305554 842158 525
316165 395383 441
297464 337355 384
828771 387518 509
412447 252678 449
29917 90622 351
980655 300686 525
951372 732161 525
72297 477728 449
652962 787513 504
124695 869544 525
650874 424449 509
147758 932669 525
704711 211284 509
880814 181500 525
896641 832215 525
774571 551935 509
200905 851972 525
324170 637411 509
17979 968068 525
887878 450042 525
597575 190846 470
156259 698834 509
18696 963769 525
805951 721755 468
331088 566539 470
335767 198629 443
93867 890187 525
225746 770751 509
968120 693848 525
576654 397460 470
874660 713234 525
573237 171511 470
29249 628208 509
564157 601988 434
657402 958767 525
798296 818689 406
429435 883698 525
447194 666876 509
554833 808988 509
973980 751455 525
791365 679349 504
538999 140893 470
36681 291997 443
852146 768306 525
320756 250068 407
479833 937822 525
575921 562527 421
10636 265077 443
708851 172119 509
467495 137827 449
309040 1464 443
881153 799591 525
98257 886490 525
568739 596247 434
86884 256680 443
745215 838153 525
602758 517672 452
98160 91655 328
366606 551681 470
788095 90771 509
714133 45875 509
244915 523556 470
587419 741518 509
92544 802440 509
392975 840943 525
712982 262180 509
73825 630573 509
125807 193963 383
440409 145462 449
937417 348426 525
609550 647280 509
16240 403473 443
432886 974599 525
304797 648127 509
518423 235554 470
488415 536086 470
268959 962440 525
409317 473099 449
551066 114872 470
142795 692028 509
378512 43947 443
926786 589480 525
574593 197886 470
632326 158722 509
601064 36953 470
970106 132607 525
788502 113185 509
308036 41575 443
602730 701297 509
881341 691101 525
560518 223886 470
667116 32361 509
312059 298591 371
658054 756316 504
544344 981641 525
932386 55360 525
158206 971028 525
338999 65915 443
250023 441411 449
18874 606780 470
530355 246466 470
335923 154336 443
139080 4602 354
494923 934016 525
847874 256982 525
674619 335116 509
166214 292911 443
497116 145427 449
945042 193032 525
51950 860530 525
699251 590989 509
996013 116125 525
31450 862253 525
792598 964778 525
904951 21313 525
957574 562839 525
37740 499524 449
289673 522784 470
893163 77751 525
952194 118384 525
55058 556946 470
416478 793572 509
555900 405523 470
608632 12554 470
919908 162468 525
814283 832106 450
62780 650586 509
807664 851773 525
224437 153877 386
126804 448317 449
987473 783082 525
584863 256214 470
223746 966503 525
697672 827499 504
806407 245656 509
594226 558924 434
901619 549792 525
213660 569216 470
165916 968374 525
978241 999684 440
934151 801467 525
273469 842887 525
62264 258372 443
870720 290333 525
549813 390463 470
814826 246672 509
625646 479215 470
142921 322205 443
778803 669527 504
781595 944043 525
811342 800452 406
944056 580878 525
717150 365474 509
814375 567750 509
589780 621145 447
146244 883133 525
81375 387734 443
973793 657046 525
898474 250420 525
893034 916290 476
504019 26062 449
944276 855049 507
886791 369458 525
319328 271829 389
70215 117704 354
980346 828365 525
264632 675547 509
138889 734819 509
983856 363291 525
177406 730110 509
480231 689434 509
34342 933356 525
101129 925335 525
335623 934375 525
462749 916403 525
820463 432715 509
758893 131285 509
784716 652970 504
728071 261730 509
235962 90376 443
331569 239255 407
182650 932988 525
290973 420489 449
57834 247413 443
433548 143512 449
136878 720677 509
641723 234855 509
779580 610104 509
100376 727529 509
889750 34026 525
931056 23390 525
